\chapentry {Overview of AWESIME}{1}{1}
\chapentry {Example}{2}{2}
\secentry {Main}{2}{1}{2}
\secentry {Recv}{2}{2}{4}
\secentry {Send}{2}{3}{6}
\secentry {Changing Schedulers}{2}{4}{8}
\secentry {Debug Output}{2}{5}{8}
\chapentry {ThreadContainers}{3}{10}
\secentry {ThreadContainer}{3}{1}{10}
\secentry {Cpu}{3}{2}{11}
\secentry {EventScheduler}{3}{3}{11}
\secentry {FifoScheduler}{3}{4}{12}
\secentry {HeapScheduler}{3}{5}{12}
\chapentry {Synchronization}{4}{13}
\subsecentry {Barrier}{4}{0}{1}{13}
\subsecentry {Semaphore}{4}{0}{2}{13}
\subsecentry {Facility}{4}{0}{3}{14}
\subsecentry {OwnedFacility}{4}{0}{4}{14}
\chapentry {Data Structures}{5}{15}
\secentry {GenericHeap}{5}{1}{15}
\secentry {GenericFifo}{5}{2}{18}
\secentry {LockedFifo}{5}{3}{20}
\secentry {LowerBoundedFifo}{5}{4}{21}
\secentry {BoundedFifo}{5}{5}{21}
\chapentry {Data Recording}{6}{22}
\secentry {Statistic}{6}{1}{22}
\secentry {Histogram}{6}{2}{23}
\chapentry {Random Number Generators}{7}{24}
\secentry {RNG}{7}{1}{24}
\secentry {ACG}{7}{2}{24}
\secentry {MLCG}{7}{3}{25}
\secentry {Random}{7}{4}{26}
\secentry {Binomial}{7}{5}{26}
\secentry {Erlang}{7}{6}{26}
\secentry {Geometric}{7}{7}{26}
\secentry {HyperGeometric}{7}{8}{26}
\secentry {LogNormal}{7}{9}{27}
\secentry {NegativeExpntl}{7}{10}{27}
\secentry {Normal}{7}{11}{27}
\secentry {Poisson}{7}{12}{27}
\secentry {RandomInterval}{7}{13}{27}
\secentry {RandomRange}{7}{14}{28}
\secentry {Weibull}{7}{15}{28}
