'xrdef {Overview-pg}{1}
'xrdef {Overview-snt}{chapter'tie1}
'xrdef {Example-pg}{2}
'xrdef {Example-snt}{chapter'tie2}
'xrdef {Main-pg}{2}
'xrdef {Main-snt}{section'tie2.1}
'xrdef {Recv-pg}{4}
'xrdef {Recv-snt}{section'tie2.2}
'xrdef {Send-pg}{6}
'xrdef {Send-snt}{section'tie2.3}
'xrdef {Changing Schedulers-pg}{8}
'xrdef {Changing Schedulers-snt}{section'tie2.4}
'xrdef {Debug Output-pg}{8}
'xrdef {Debug Output-snt}{section'tie2.5}
'xrdef {ThreadContainers-pg}{10}
'xrdef {ThreadContainers-snt}{chapter'tie3}
'xrdef {Cpu-pg}{11}
'xrdef {Cpu-snt}{section'tie3.2}
'xrdef {EventScheduler-pg}{11}
'xrdef {EventScheduler-snt}{section'tie3.3}
'xrdef {FifoScheduler-pg}{12}
'xrdef {FifoScheduler-snt}{section'tie3.4}
'xrdef {HeapScheduler-pg}{12}
'xrdef {HeapScheduler-snt}{section'tie3.5}
'xrdef {Synchronization-pg}{13}
'xrdef {Synchronization-snt}{chapter'tie4}
'xrdef {Data Structures-pg}{15}
'xrdef {Data Structures-snt}{chapter'tie5}
'xrdef {GenericHeap-pg}{15}
'xrdef {GenericHeap-snt}{section'tie5.1}
'xrdef {GenericFifo-pg}{18}
'xrdef {GenericFifo-snt}{section'tie5.2}
'xrdef {LockedFifo-pg}{20}
'xrdef {LockedFifo-snt}{section'tie5.3}
'xrdef {LowerBoundedFifo-pg}{21}
'xrdef {LowerBoundedFifo-snt}{section'tie5.4}
'xrdef {BoundedFifo-pg}{21}
'xrdef {BoundedFifo-snt}{section'tie5.5}
'xrdef {Data Recording-pg}{22}
'xrdef {Data Recording-snt}{chapter'tie6}
'xrdef {Statistic-pg}{22}
'xrdef {Statistic-snt}{section'tie6.1}
'xrdef {Histogram-pg}{23}
'xrdef {Histogram-snt}{section'tie6.2}
'xrdef {Random Numbers-pg}{24}
'xrdef {Random Numbers-snt}{chapter'tie7}
'xrdef {RNG-pg}{24}
'xrdef {RNG-snt}{section'tie7.1}
'xrdef {ACG-pg}{24}
'xrdef {ACG-snt}{section'tie7.2}
'xrdef {MLCG-pg}{25}
'xrdef {MLCG-snt}{section'tie7.3}
'xrdef {Random-pg}{26}
'xrdef {Random-snt}{section'tie7.4}
'xrdef {Binomial-pg}{26}
'xrdef {Binomial-snt}{section'tie7.5}
'xrdef {Erlang-pg}{26}
'xrdef {Erlang-snt}{section'tie7.6}
'xrdef {Geometric-pg}{26}
'xrdef {Geometric-snt}{section'tie7.7}
'xrdef {HyperGeometric-pg}{26}
'xrdef {HyperGeometric-snt}{section'tie7.8}
'xrdef {LogNormal-pg}{27}
'xrdef {LogNormal-snt}{section'tie7.9}
'xrdef {NegativeExpntl-pg}{27}
'xrdef {NegativeExpntl-snt}{section'tie7.10}
'xrdef {Normal-pg}{27}
'xrdef {Normal-snt}{section'tie7.11}
'xrdef {Poisson-pg}{27}
'xrdef {Poisson-snt}{section'tie7.12}
'xrdef {RandomInterval-pg}{27}
'xrdef {RandomInterval-snt}{section'tie7.13}
'xrdef {RandomRange-pg}{28}
'xrdef {RandomRange-snt}{section'tie7.14}
'xrdef {Weibull-pg}{28}
'xrdef {Weibull-snt}{section'tie7.15}
